Chapter 10 simulation | 직업환경보건 연구방법론
…
upper %>% unlist() %>% tibble() %>%
  setNames('upper') %>%
  mutate(ranks = row_number()) %>%
  filter(upper <=1)

## # A tibble: 10,164 × 2
##    upper ranks
##    <dbl> <int>
##  1 0.991     1
##  2 0.991     2
##  3 0.991     3
##  4 0.991     4
##  5 0.991     5
##  6 0.991     6
##  7 0.991     7
##  8 0.991     8
##  9 0.990     9
## 10 0.990    10
## # … with 10,154 more rows
